…
``` r
ufs <- c("PB", "PB", "PB", "PB", "AC", "AL", "PE")
names <- c("PB", "Paraiba", "Paraíba", "PB (Campina Grande)", "Acre", "Alagoas", 
           "Pernambuco, mas moro em Campina Grande há mais de 20 anos")

df_uf <- data.frame(uf = names, ufs)
turma_fpcc2 %>% select(uf) %>% 
  full_join(df_uf)
```

    ## Joining, by = "uf"

    ## # A tibble: 24 x 2
    ##    uf      ufs  
    ##    <chr>   <chr>
    ##  1 PB      PB   
    ##  2 Alagoas AL   
    ##  3 Opção 1 <NA> 
    ##  4 PB      PB   
    ##  5 PB      PB   
    ##  6 PB      PB   
    ##  7 Opção 1 <NA> 
    ##  8 PB      PB   
    ##  9 Paraíba PB   
    ## 10 Opção 1 <NA> 
    ## # ... with 14 more rows
